Loading and Looking at Data
…
##   read12 = col_double(),
##   math12 = col_double(),
##   female = col_double(),
##   asian = col_double(),
##   hispan = col_double(),
##   black = col_double(),
##   motheduc = col_double(),
##   fatheduc = col_double(),
##   lfaminc = col_double(),
##   hsgrad = col_double(),
##   cathhs = col_double(),
##   parcath = col_double()
## )

## # A tibble: 7,430 x 13
##        id read12 math12 female asian hispan black motheduc fatheduc lfaminc
##     <dbl>  <dbl>  <dbl>  <dbl> <dbl>  <dbl> <dbl>    <dbl>    <dbl>   <dbl>
##  1 124902   61.4   49.8      0     0      0     0       14       12   10.3 
##  2 124915   58.3   59.8      0     0      0     0       14       14   10.3 
##  3 124916   59.3   50.4      1     0      0     0       14       11   10.3 
##  4 124932   49.6   45.0      1     0      0     0       12       14   10.3 
##  5 124944   57.6   54.3      1     0      0     0       12       12   10.7 
##  6 124947   52.5   56.7      1     0      0     0       12       11   11.0 
##  7 124966   60.1   55.4      1     0      0     0       14       14    9.43
##  8 124968   64.7   65.1      0     0      0     0       14       14   10.3 
##  9 124972   42.1   54.0      0     0      0     0       14       14   10.3 
## 10 124974   60.2   62.7      0     0      0     0       14       12    9.77
## # ... with 7,420 more rows, and 3 more variables: hsgrad <dbl>, cathhs <dbl>,
## #   parcath <dbl>
…
